{
	"displayName": "Default Themes",
	"description": "The default Visual Studio light and dark themes",
	"darkPlusColorThemeLabel": "Dark+",
	"darkPlusExperimentalColorThemeLabel": "Dark+ V2 (Experimental)",
	"lightPlusColorThemeLabel": "Light+",
	"lightPlusExperimentalColorThemeLabel": "Light+ V2 (Experimental)",
	"darkColorThemeLabel": "Dark (Visual Studio)",
	"lightColorThemeLabel": "Light (Visual Studio)",
	"hcColorThemeLabel": "Dark High Contrast",
	"lightHcColorThemeLabel": "Light High Contrast",
	"minimalIconThemeLabel": "Minimal (Visual Studio Code)"
}
